#
# There is insufficient memory for the Java Runtime Environment to continue.
# Native memory allocation (mmap) failed to map 118489088 bytes for committing reserved memory.
# Possible reasons:
#   The system is out of physical RAM or swap space
#   In 32 bit mode, the process size limit was hit
# Possible solutions:
#   Reduce memory load on the system
#   Increase physical memory or swap space
#   Check if swap backing store is full
#   Use 64 bit Java on a 64 bit OS
#   Decrease Java heap size (-Xmx/-Xms)
#   Decrease number of Java threads
#   Decrease Java thread stack sizes (-Xss)
#   Set larger code cache with -XX:ReservedCodeCacheSize=
# This output file may be truncated or incomplete.
#
#  Out of Memory Error (os_linux.cpp:2643), pid=32300, tid=0x00007fe821ac4700
#
# JRE version: OpenJDK Runtime Environment (8.0_151-b12) (build 1.8.0_151-8u151-b12-0ubuntu0.16.04.2-b12)
# Java VM: OpenJDK 64-Bit Server VM (25.151-b12 mixed mode linux-amd64 compressed oops)
# Failed to write core dump. Core dumps have been disabled. To enable core dumping, try "ulimit -c unlimited" before starting Java again
#

---------------  T H R E A D  ---------------

Current thread (0x00007fe834078000):  VMThread [stack: 0x00007fe8219c4000,0x00007fe821ac5000] [id=32307]

Stack: [0x00007fe8219c4000,0x00007fe821ac5000],  sp=0x00007fe821ac34a0,  free space=1021k
Native frames: (J=compiled Java code, j=interpreted, Vv=VM code, C=native code)
V  [libjvm.so+0xa684eb]
V  [libjvm.so+0x4c579c]
V  [libjvm.so+0x8b6b50]
V  [libjvm.so+0x8b0fce]
V  [libjvm.so+0x92b806]
V  [libjvm.so+0x92cb33]
V  [libjvm.so+0x9291fb]
V  [libjvm.so+0x922029]
V  [libjvm.so+0x449973]
V  [libjvm.so+0xa69a79]
V  [libjvm.so+0xa6f277]
V  [libjvm.so+0xa6ca47]
V  [libjvm.so+0xa6decf]
V  [libjvm.so+0xa6e3c1]
V  [libjvm.so+0x8b4032]

VM_Operation (0x00007fe83c039dd0): CollectForMetadataAllocation, mode: safepoint, requested by thread 0x00007fe83400e800


---------------  P R O C E S S  ---------------

Java Threads: ( => current thread )
  0x00007fe83495f800 JavaThread "process reaper" daemon [_thread_blocked, id=32317, stack(0x00007fe820ae4000,0x00007fe820b1d000)]
  0x00007fe8340b8800 JavaThread "Service Thread" daemon [_thread_blocked, id=32313, stack(0x00007fe821226000,0x00007fe821327000)]
  0x00007fe8340b0800 JavaThread "C1 CompilerThread1" daemon [_thread_blocked, id=32312, stack(0x00007fe821327000,0x00007fe821428000)]
  0x00007fe8340ad800 JavaThread "C2 CompilerThread0" daemon [_thread_in_native, id=32311, stack(0x00007fe821428000,0x00007fe821529000)]
  0x00007fe8340ab800 JavaThread "Signal Dispatcher" daemon [_thread_blocked, id=32310, stack(0x00007fe821529000,0x00007fe82162a000)]
  0x00007fe834084000 JavaThread "Finalizer" daemon [_thread_blocked, id=32309, stack(0x00007fe8217c2000,0x00007fe8218c3000)]
  0x00007fe83407f800 JavaThread "Reference Handler" daemon [_thread_blocked, id=32308, stack(0x00007fe8218c3000,0x00007fe8219c4000)]
  0x00007fe83400e800 JavaThread "main" [_thread_blocked, id=32304, stack(0x00007fe83bf3e000,0x00007fe83c03f000)]

Other Threads:
=>0x00007fe834078000 VMThread [stack: 0x00007fe8219c4000,0x00007fe821ac5000] [id=32307]
  0x00007fe8340ba800 WatcherThread [stack: 0x00007fe821125000,0x00007fe821226000] [id=32314]

VM state:at safepoint (normal execution)

VM Mutex/Monitor currently owned by a thread:  ([mutex/lock_event])
[0x00007fe83400af90] Threads_lock - owner thread: 0x00007fe834078000
[0x00007fe83400b490] Heap_lock - owner thread: 0x00007fe83400e800

Heap:
 PSYoungGen      total 204288K, used 3591K [0x00000000eab00000, 0x00000000f7c00000, 0x0000000100000000)
  eden space 195584K, 0% used [0x00000000eab00000,0x00000000eab00000,0x00000000f6a00000)
  from space 8704K, 41% used [0x00000000f6a00000,0x00000000f6d81df0,0x00000000f7280000)
  to   space 7680K, 0% used [0x00000000f7280000,0x00000000f7280000,0x00000000f7a00000)
 ParOldGen       total 32768K, used 9292K [0x00000000c0000000, 0x00000000c2000000, 0x00000000eab00000)
  object space 32768K, 28% used [0x00000000c0000000,0x00000000c0913188,0x00000000c2000000)
 Metaspace       used 20846K, capacity 21236K, committed 21296K, reserved 1069056K
  class space    used 2462K, capacity 2580K, committed 2608K, reserved 1048576K

Card table byte_map: [0x00007fe8383e2000,0x00007fe8385e3000] byte_map_base: 0x00007fe837de2000

Marking Bits: (ParMarkBitMap*) 0x00007fe83b1f62c0
 Begin Bits: [0x00007fe823000000, 0x00007fe824000000)
 End Bits:   [0x00007fe824000000, 0x00007fe825000000)

Polling page: 0x00007fe83c04a000

CodeCache: size=245760Kb used=7798Kb max_used=7798Kb free=237961Kb
 bounds [0x00007fe825000000, 0x00007fe8257b0000, 0x00007fe834000000]
 total_blobs=2926 nmethods=2493 adapters=347
 compilation: enabled

Compilation events (10 events):
Event: 3.846 Thread 0x00007fe8340b0800 2498       2       java.lang.reflect.Method::specificToGenericStringHeader (48 bytes)
Event: 3.847 Thread 0x00007fe8340b0800 nmethod 2498 0x00007fe82579f450 code [0x00007fe82579f660, 0x00007fe82579fe48]
Event: 3.847 Thread 0x00007fe8340b0800 2499       2       java.lang.reflect.Method::getGenericExceptionTypes (5 bytes)
Event: 3.847 Thread 0x00007fe8340b0800 nmethod 2499 0x00007fe8257a0650 code [0x00007fe8257a07e0, 0x00007fe8257a0ba8]
Event: 3.848 Thread 0x00007fe8340b0800 2500       2       java.beans.FeatureDescriptor::getWeakReference (17 bytes)
Event: 3.848 Thread 0x00007fe8340b0800 nmethod 2500 0x00007fe8257a0ed0 code [0x00007fe8257a1040, 0x00007fe8257a1230]
Event: 3.851 Thread 0x00007fe8340b0800 2501       2       java.util.LinkedList::<init> (10 bytes)
Event: 3.852 Thread 0x00007fe8340b0800 nmethod 2501 0x00007fe8257a12d0 code [0x00007fe8257a1420, 0x00007fe8257a1570]
Event: 3.860 Thread 0x00007fe8340b0800 2502       2       freemarker.ext.beans.BeansWrapper$MethodSignature::hashCode (14 bytes)
Event: 3.860 Thread 0x00007fe8340b0800 nmethod 2502 0x00007fe8257a1610 code [0x00007fe8257a1780, 0x00007fe8257a1908]

GC Heap History (10 events):
Event: 0.618 GC heap after
Heap after GC invocations=4 (full 0):
 PSYoungGen      total 51200K, used 2016K [0x00000000eab00000, 0x00000000edf00000, 0x0000000100000000)
  eden space 49152K, 0% used [0x00000000eab00000,0x00000000eab00000,0x00000000edb00000)
  from space 2048K, 98% used [0x00000000edd00000,0x00000000edef8030,0x00000000edf00000)
  to   space 2048K, 0% used [0x00000000edb00000,0x00000000edb00000,0x00000000edd00000)
 ParOldGen       total 32768K, used 1329K [0x00000000c0000000, 0x00000000c2000000, 0x00000000eab00000)
  object space 32768K, 4% used [0x00000000c0000000,0x00000000c014c6d8,0x00000000c2000000)
 Metaspace       used 7215K, capacity 7308K, committed 7552K, reserved 1056768K
  class space    used 795K, capacity 826K, committed 896K, reserved 1048576K
}
Event: 0.874 GC heap before
{Heap before GC invocations=5 (full 0):
 PSYoungGen      total 51200K, used 51168K [0x00000000eab00000, 0x00000000edf00000, 0x0000000100000000)
  eden space 49152K, 100% used [0x00000000eab00000,0x00000000edb00000,0x00000000edb00000)
  from space 2048K, 98% used [0x00000000edd00000,0x00000000edef8030,0x00000000edf00000)
  to   space 2048K, 0% used [0x00000000edb00000,0x00000000edb00000,0x00000000edd00000)
 ParOldGen       total 32768K, used 1329K [0x00000000c0000000, 0x00000000c2000000, 0x00000000eab00000)
  object space 32768K, 4% used [0x00000000c0000000,0x00000000c014c6d8,0x00000000c2000000)
 Metaspace       used 8229K, capacity 8434K, committed 8704K, reserved 1056768K
  class space    used 914K, capacity 971K, committed 1024K, reserved 1048576K
Event: 0.883 GC heap after
Heap after GC invocations=5 (full 0):
 PSYoungGen      total 51200K, used 2035K [0x00000000eab00000, 0x00000000f1800000, 0x0000000100000000)
  eden space 49152K, 0% used [0x00000000eab00000,0x00000000eab00000,0x00000000edb00000)
  from space 2048K, 99% used [0x00000000edb00000,0x00000000edcfcef8,0x00000000edd00000)
  to   space 6656K, 0% used [0x00000000f1180000,0x00000000f1180000,0x00000000f1800000)
 ParOldGen       total 32768K, used 6119K [0x00000000c0000000, 0x00000000c2000000, 0x00000000eab00000)
  object space 32768K, 18% used [0x00000000c0000000,0x00000000c05f9f48,0x00000000c2000000)
 Metaspace       used 8229K, capacity 8434K, committed 8704K, reserved 1056768K
  class space    used 914K, capacity 971K, committed 1024K, reserved 1048576K
}
Event: 2.519 GC heap before
{Heap before GC invocations=6 (full 0):
 PSYoungGen      total 51200K, used 51187K [0x00000000eab00000, 0x00000000f1800000, 0x0000000100000000)
  eden space 49152K, 100% used [0x00000000eab00000,0x00000000edb00000,0x00000000edb00000)
  from space 2048K, 99% used [0x00000000edb00000,0x00000000edcfcef8,0x00000000edd00000)
  to   space 6656K, 0% used [0x00000000f1180000,0x00000000f1180000,0x00000000f1800000)
 ParOldGen       total 32768K, used 6119K [0x00000000c0000000, 0x00000000c2000000, 0x00000000eab00000)
  object space 32768K, 18% used [0x00000000c0000000,0x00000000c05f9f48,0x00000000c2000000)
 Metaspace       used 9820K, capacity 10090K, committed 10240K, reserved 1058816K
  class space    used 1087K, capacity 1181K, committed 1280K, reserved 1048576K
Event: 2.525 GC heap after
Heap after GC invocations=6 (full 0):
 PSYoungGen      total 104960K, used 3731K [0x00000000eab00000, 0x00000000f1800000, 0x0000000100000000)
  eden space 98304K, 0% used [0x00000000eab00000,0x00000000eab00000,0x00000000f0b00000)
  from space 6656K, 56% used [0x00000000f1180000,0x00000000f1524ef8,0x00000000f1800000)
  to   space 6656K, 0% used [0x00000000f0b00000,0x00000000f0b00000,0x00000000f1180000)
 ParOldGen       total 32768K, used 6127K [0x00000000c0000000, 0x00000000c2000000, 0x00000000eab00000)
  object space 32768K, 18% used [0x00000000c0000000,0x00000000c05fbf48,0x00000000c2000000)
 Metaspace       used 9820K, capacity 10090K, committed 10240K, reserved 1058816K
  class space    used 1087K, capacity 1181K, committed 1280K, reserved 1048576K
}
Event: 2.969 GC heap before
{Heap before GC invocations=7 (full 0):
 PSYoungGen      total 104960K, used 102035K [0x00000000eab00000, 0x00000000f1800000, 0x0000000100000000)
  eden space 98304K, 100% used [0x00000000eab00000,0x00000000f0b00000,0x00000000f0b00000)
  from space 6656K, 56% used [0x00000000f1180000,0x00000000f1524ef8,0x00000000f1800000)
  to   space 6656K, 0% used [0x00000000f0b00000,0x00000000f0b00000,0x00000000f1180000)
 ParOldGen       total 32768K, used 6127K [0x00000000c0000000, 0x00000000c2000000, 0x00000000eab00000)
  object space 32768K, 18% used [0x00000000c0000000,0x00000000c05fbf48,0x00000000c2000000)
 Metaspace       used 13356K, capacity 13610K, committed 13824K, reserved 1060864K
  class space    used 1598K, capacity 1693K, committed 1792K, reserved 1048576K
Event: 2.978 GC heap after
Heap after GC invocations=7 (full 0):
 PSYoungGen      total 104960K, used 5971K [0x00000000eab00000, 0x00000000f7a00000, 0x0000000100000000)
  eden space 98304K, 0% used [0x00000000eab00000,0x00000000eab00000,0x00000000f0b00000)
  from space 6656K, 89% used [0x00000000f0b00000,0x00000000f10d4d58,0x00000000f1180000)
  to   space 7680K, 0% used [0x00000000f7280000,0x00000000f7280000,0x00000000f7a00000)
 ParOldGen       total 32768K, used 6747K [0x00000000c0000000, 0x00000000c2000000, 0x00000000eab00000)
  object space 32768K, 20% used [0x00000000c0000000,0x00000000c0696e60,0x00000000c2000000)
 Metaspace       used 13356K, capacity 13610K, committed 13824K, reserved 1060864K
  class space    used 1598K, capacity 1693K, committed 1792K, reserved 1048576K
}
Event: 3.442 GC heap before
{Heap before GC invocations=8 (full 0):
 PSYoungGen      total 104960K, used 104275K [0x00000000eab00000, 0x00000000f7a00000, 0x0000000100000000)
  eden space 98304K, 100% used [0x00000000eab00000,0x00000000f0b00000,0x00000000f0b00000)
  from space 6656K, 89% used [0x00000000f0b00000,0x00000000f10d4d58,0x00000000f1180000)
  to   space 7680K, 0% used [0x00000000f7280000,0x00000000f7280000,0x00000000f7a00000)
 ParOldGen       total 32768K, used 6747K [0x00000000c0000000, 0x00000000c2000000, 0x00000000eab00000)
  object space 32768K, 20% used [0x00000000c0000000,0x00000000c0696e60,0x00000000c2000000)
 Metaspace       used 18666K, capacity 18902K, committed 18944K, reserved 1067008K
  class space    used 2210K, capacity 2303K, committed 2304K, reserved 1048576K
Event: 3.451 GC heap after
Heap after GC invocations=8 (full 0):
 PSYoungGen      total 203264K, used 7237K [0x00000000eab00000, 0x00000000f7c00000, 0x0000000100000000)
  eden space 195584K, 0% used [0x00000000eab00000,0x00000000eab00000,0x00000000f6a00000)
  from space 7680K, 94% used [0x00000000f7280000,0x00000000f7991400,0x00000000f7a00000)
  to   space 8704K, 0% used [0x00000000f6a00000,0x00000000f6a00000,0x00000000f7280000)
 ParOldGen       total 32768K, used 7251K [0x00000000c0000000, 0x00000000c2000000, 0x00000000eab00000)
  object space 32768K, 22% used [0x00000000c0000000,0x00000000c0714e70,0x00000000c2000000)
 Metaspace       used 18666K, capacity 18902K, committed 18944K, reserved 1067008K
  class space    used 2210K, capacity 2303K, committed 2304K, reserved 1048576K
}
Event: 3.885 GC heap before
{Heap before GC invocations=9 (full 0):
 PSYoungGen      total 203264K, used 97021K [0x00000000eab00000, 0x00000000f7c00000, 0x0000000100000000)
  eden space 195584K, 45% used [0x00000000eab00000,0x00000000f02ae220,0x00000000f6a00000)
  from space 7680K, 94% used [0x00000000f7280000,0x00000000f7991400,0x00000000f7a00000)
  to   space 8704K, 0% used [0x00000000f6a00000,0x00000000f6a00000,0x00000000f7280000)
 ParOldGen       total 32768K, used 7251K [0x00000000c0000000, 0x00000000c2000000, 0x00000000eab00000)
  object space 32768K, 22% used [0x00000000c0000000,0x00000000c0714e70,0x00000000c2000000)
 Metaspace       used 20846K, capacity 21236K, committed 21296K, reserved 1069056K
  class space    used 2462K, capacity 2580K, committed 2608K, reserved 1048576K

Deoptimization events (10 events):
Event: 3.175 Thread 0x00007fe83400e800 Uncommon trap: reason=class_check action=maybe_recompile pc=0x00007fe82561de00 method=java.util.HashMap.putVal(ILjava/lang/Object;Ljava/lang/Object;ZZ)Ljava/lang/Object; @ 203
Event: 3.197 Thread 0x00007fe83400e800 Uncommon trap: reason=unstable_if action=reinterpret pc=0x00007fe82564116c method=java.io.BufferedReader.read()I @ 19
Event: 3.204 Thread 0x00007fe83400e800 Uncommon trap: reason=class_check action=maybe_recompile pc=0x00007fe8254f6830 method=java.lang.ThreadLocal$ThreadLocalMap.set(Ljava/lang/ThreadLocal;Ljava/lang/Object;)V @ 36
Event: 3.204 Thread 0x00007fe83400e800 Uncommon trap: reason=unstable_if action=reinterpret pc=0x00007fe8254f67c0 method=java.lang.ThreadLocal$ThreadLocalMap.set(Ljava/lang/ThreadLocal;Ljava/lang/Object;)V @ 44
Event: 3.210 Thread 0x00007fe83400e800 Uncommon trap: reason=unstable_if action=reinterpret pc=0x00007fe8251908f4 method=java.lang.AbstractStringBuilder.append(Ljava/lang/String;)Ljava/lang/AbstractStringBuilder; @ 1
Event: 3.414 Thread 0x00007fe83400e800 Uncommon trap: reason=class_check action=maybe_recompile pc=0x00007fe8253e51dc method=java.util.HashMap.putVal(ILjava/lang/Object;Ljava/lang/Object;ZZ)Ljava/lang/Object; @ 203
Event: 3.414 Thread 0x00007fe83400e800 Uncommon trap: reason=unstable_if action=reinterpret pc=0x00007fe8253e51b0 method=java.util.HashMap.putVal(ILjava/lang/Object;Ljava/lang/Object;ZZ)Ljava/lang/Object; @ 94
Event: 3.415 Thread 0x00007fe83400e800 Uncommon trap: reason=class_check action=maybe_recompile pc=0x00007fe82561de00 method=java.util.HashMap.putVal(ILjava/lang/Object;Ljava/lang/Object;ZZ)Ljava/lang/Object; @ 203
Event: 3.580 Thread 0x00007fe83400e800 Uncommon trap: reason=unstable_if action=reinterpret pc=0x00007fe8256b40ac method=java.util.HashMap.getNode(ILjava/lang/Object;)Ljava/util/HashMap$Node; @ 129
Event: 3.581 Thread 0x00007fe83400e800 Uncommon trap: reason=unstable_if action=reinterpret pc=0x00007fe8256b5d68 method=java.util.HashMap.getNode(ILjava/lang/Object;)Ljava/util/HashMap$Node; @ 129

Internal exceptions (10 events):
Event: 3.304 Thread 0x00007fe83400e800 Exception <a 'java/lang/ClassNotFoundException': org/hibernate/util/CloneableCustomizer> (0x00000000ee0f2e78) thrown at [/build/openjdk-8-W2Qe27/openjdk-8-8u151-b12/src/hotspot/src/share/vm/classfile/systemDictionary.cpp, line 210]
Event: 3.304 Thread 0x00007fe83400e800 Exception <a 'java/lang/ClassNotFoundException': org/hibernate/event/EventListenersCustomizer> (0x00000000ee13d028) thrown at [/build/openjdk-8-W2Qe27/openjdk-8-8u151-b12/src/hotspot/src/share/vm/classfile/systemDictionary.cpp, line 210]
Event: 3.839 Thread 0x00007fe83400e800 Exception <a 'java/lang/NoClassDefFoundError': org/zeroturnaround/javarebel/ClassEventListener> (0x00000000ef508b48) thrown at [/build/openjdk-8-W2Qe27/openjdk-8-8u151-b12/src/hotspot/src/share/vm/classfile/systemDictionary.cpp, line 199]
Event: 3.844 Thread 0x00007fe83400e800 Exception <a 'java/lang/ClassNotFoundException': java/lang/BooleanBeanInfo> (0x00000000ef725358) thrown at [/build/openjdk-8-W2Qe27/openjdk-8-8u151-b12/src/hotspot/src/share/vm/classfile/systemDictionary.cpp, line 210]
Event: 3.845 Thread 0x00007fe83400e800 Exception <a 'java/lang/ClassNotFoundException': java/lang/BooleanCustomizer> (0x00000000ef744d30) thrown at [/build/openjdk-8-W2Qe27/openjdk-8-8u151-b12/src/hotspot/src/share/vm/classfile/systemDictionary.cpp, line 210]
Event: 3.845 Thread 0x00007fe83400e800 Exception <a 'java/lang/ArrayIndexOutOfBoundsException'> (0x00000000ef747058) thrown at [/build/openjdk-8-W2Qe27/openjdk-8-8u151-b12/src/hotspot/src/share/vm/runtime/sharedRuntime.cpp, line 605]
Event: 3.848 Thread 0x00007fe83400e800 Exception <a 'java/lang/ArrayIndexOutOfBoundsException'> (0x00000000ef74de30) thrown at [/build/openjdk-8-W2Qe27/openjdk-8-8u151-b12/src/hotspot/src/share/vm/runtime/sharedRuntime.cpp, line 605]
Event: 3.852 Thread 0x00007fe83400e800 Exception <a 'java/lang/ArrayIndexOutOfBoundsException'> (0x00000000ef84ac28) thrown at [/build/openjdk-8-W2Qe27/openjdk-8-8u151-b12/src/hotspot/src/share/vm/runtime/sharedRuntime.cpp, line 605]
Event: 3.853 Thread 0x00007fe83400e800 Exception <a 'java/lang/ArrayIndexOutOfBoundsException'> (0x00000000ef88e738) thrown at [/build/openjdk-8-W2Qe27/openjdk-8-8u151-b12/src/hotspot/src/share/vm/runtime/sharedRuntime.cpp, line 605]
Event: 3.860 Thread 0x00007fe83400e800 Exception <a 'java/lang/ArrayIndexOutOfBoundsException'> (0x00000000efb06690) thrown at [/build/openjdk-8-W2Qe27/openjdk-8-8u151-b12/src/hotspot/src/share/vm/runtime/sharedRuntime.cpp, line 605]

Events (10 events):
Event: 3.882 loading class freemarker/core/BuiltinVariable done
Event: 3.882 loading class freemarker/core/TrimInstruction
Event: 3.882 loading class freemarker/core/TrimInstruction done
Event: 3.883 loading class freemarker/core/FMParser$JJCalls
Event: 3.883 loading class freemarker/core/FMParser$JJCalls done
Event: 3.883 loading class freemarker/core/SimpleCharStream
Event: 3.883 loading class freemarker/core/SimpleCharStream done
Event: 3.884 loading class freemarker/core/FMParserTokenManager
Event: 3.884 loading class freemarker/core/FMParserTokenManager done
Event: 3.885 Executing VM operation: CollectForMetadataAllocation


Dynamic libraries:
00400000-00401000 r-xp 00000000 fd:01 1046840                            /usr/lib/jvm/java-8-openjdk-amd64/jre/bin/java
00600000-00601000 r--p 00000000 fd:01 1046840                            /usr/lib/jvm/java-8-openjdk-amd64/jre/bin/java
00601000-00602000 rw-p 00001000 fd:01 1046840                            /usr/lib/jvm/java-8-openjdk-amd64/jre/bin/java
011a6000-011c7000 rw-p 00000000 00:00 0                                  [heap]
c0000000-c2000000 rw-p 00000000 00:00 0 
c2000000-eab00000 ---p 00000000 00:00 0 
eab00000-f7c00000 rw-p 00000000 00:00 0 
fed00000-100000000 ---p 00000000 00:00 0 
100000000-10028c000 rw-p 00000000 00:00 0 
10028c000-140000000 ---p 00000000 00:00 0 
7fe7e87ec000-7fe7e882c000 rw-p 00000000 00:00 0 
7fe7e882c000-7fe7e89ec000 ---p 00000000 00:00 0 
7fe7e89ec000-7fe7e8bec000 rw-p 00000000 00:00 0 
7fe7e8bec000-7fe7e8dec000 rw-p 00000000 00:00 0 
7fe7e8dec000-7fe7e8dfd000 r-xp 00000000 fd:01 785245                     /usr/lib/jvm/java-8-openjdk-amd64/jre/lib/amd64/libnio.so
7fe7e8dfd000-7fe7e8ffd000 ---p 00011000 fd:01 785245                     /usr/lib/jvm/java-8-openjdk-amd64/jre/lib/amd64/libnio.so
7fe7e8ffd000-7fe7e8ffe000 r--p 00011000 fd:01 785245                     /usr/lib/jvm/java-8-openjdk-amd64/jre/lib/amd64/libnio.so
7fe7e8ffe000-7fe7e8fff000 rw-p 00012000 fd:01 785245                     /usr/lib/jvm/java-8-openjdk-amd64/jre/lib/amd64/libnio.so
7fe7e8fff000-7fe7ec000000 rw-p 00000000 00:00 0 
7fe7ec000000-7fe7ec021000 rw-p 00000000 00:00 0 
7fe7ec021000-7fe7f0000000 ---p 00000000 00:00 0 
7fe7f0000000-7fe7f0021000 rw-p 00000000 00:00 0 
7fe7f0021000-7fe7f4000000 ---p 00000000 00:00 0 
7fe7f4000000-7fe7f4021000 rw-p 00000000 00:00 0 
7fe7f4021000-7fe7f8000000 ---p 00000000 00:00 0 
7fe7f8000000-7fe7f8021000 rw-p 00000000 00:00 0 
7fe7f8021000-7fe7fc000000 ---p 00000000 00:00 0 
7fe7fc000000-7fe7fc7a6000 rw-p 00000000 00:00 0 
7fe7fc7a6000-7fe800000000 ---p 00000000 00:00 0 
7fe800000000-7fe800021000 rw-p 00000000 00:00 0 
7fe800021000-7fe804000000 ---p 00000000 00:00 0 
7fe804000000-7fe804021000 rw-p 00000000 00:00 0 
7fe804021000-7fe808000000 ---p 00000000 00:00 0 
7fe808000000-7fe80881d000 rw-p 00000000 00:00 0 
7fe80881d000-7fe80c000000 ---p 00000000 00:00 0 
7fe80c000000-7fe80c021000 rw-p 00000000 00:00 0 
7fe80c021000-7fe810000000 ---p 00000000 00:00 0 
7fe810000000-7fe810021000 rw-p 00000000 00:00 0 
7fe810021000-7fe814000000 ---p 00000000 00:00 0 
7fe814000000-7fe814021000 rw-p 00000000 00:00 0 
7fe814021000-7fe818000000 ---p 00000000 00:00 0 
7fe818000000-7fe818021000 rw-p 00000000 00:00 0 
7fe818021000-7fe81c000000 ---p 00000000 00:00 0 
7fe81c000000-7fe81c021000 rw-p 00000000 00:00 0 
7fe81c021000-7fe820000000 ---p 00000000 00:00 0 
7fe8200c0000-7fe8200d7000 r-xp 00000000 fd:01 785233                     /usr/lib/jvm/java-8-openjdk-amd64/jre/lib/amd64/libnet.so
7fe8200d7000-7fe8202d6000 ---p 00017000 fd:01 785233                     /usr/lib/jvm/java-8-openjdk-amd64/jre/lib/amd64/libnet.so
7fe8202d6000-7fe8202d7000 r--p 00016000 fd:01 785233                     /usr/lib/jvm/java-8-openjdk-amd64/jre/lib/amd64/libnet.so
7fe8202d7000-7fe8202d8000 rw-p 00017000 fd:01 785233                     /usr/lib/jvm/java-8-openjdk-amd64/jre/lib/amd64/libnet.so
7fe8202d8000-7fe8202e1000 r-xp 00000000 fd:01 785219                     /usr/lib/jvm/java-8-openjdk-amd64/jre/lib/amd64/libmanagement.so
7fe8202e1000-7fe8204e0000 ---p 00009000 fd:01 785219                     /usr/lib/jvm/java-8-openjdk-amd64/jre/lib/amd64/libmanagement.so
7fe8204e0000-7fe8204e1000 r--p 00008000 fd:01 785219                     /usr/lib/jvm/java-8-openjdk-amd64/jre/lib/amd64/libmanagement.so
7fe8204e1000-7fe8204e2000 rw-p 00009000 fd:01 785219                     /usr/lib/jvm/java-8-openjdk-amd64/jre/lib/amd64/libmanagement.so
7fe8204e2000-7fe8206e2000 rw-p 00000000 00:00 0 
7fe8206e2000-7fe8208e2000 rw-p 00000000 00:00 0 
7fe8208e2000-7fe8208e5000 ---p 00000000 00:00 0 
7fe8208e5000-7fe8209e3000 rw-p 00000000 00:00 0 
7fe8209e3000-7fe8209e6000 ---p 00000000 00:00 0 
7fe8209e6000-7fe820ae4000 rw-p 00000000 00:00 0 
7fe820ae4000-7fe820ae7000 ---p 00000000 00:00 0 
7fe820ae7000-7fe820d1d000 rw-p 00000000 00:00 0 
7fe820d1d000-7fe820d22000 r--s 0009a000 fd:01 533095                     /usr/lib/jvm/java-8-openjdk-amd64/jre/lib/jsse.jar
7fe820d22000-7fe820d23000 r--s 00001000 fd:01 522405                     /opt/OpenbravoTablero/modules/org.openbravo.client.kernel/lib/runtime/jsmin.0.2.4.jar
7fe820d23000-7fe820d2f000 r--s 000ee000 fd:01 522406                     /opt/OpenbravoTablero/modules/org.openbravo.client.kernel/lib/runtime/jslint4java-1.4.7.jar
7fe820d2f000-7fe820d31000 r--s 00005000 fd:01 520712                     /opt/OpenbravoTablero/modules/org.openbravo.client.application/lib/runtime/httpmime-4.1.jar
7fe820d31000-7fe820d36000 r--s 00026000 fd:01 520714                     /opt/OpenbravoTablero/modules/org.openbravo.client.application/lib/runtime/httpcore-4.0.1.jar
7fe820d36000-7fe820d3d000 r--s 00040000 fd:01 520713                     /opt/OpenbravoTablero/modules/org.openbravo.client.application/lib/runtime/httpclient-4.0.jar
7fe820d3d000-7fe820d4b000 r--s 00099000 fd:01 520715                     /opt/OpenbravoTablero/modules/org.openbravo.client.application/lib/runtime/guice-2.0.jar
7fe820d4b000-7fe820d4f000 r--s 0000a000 fd:01 518216                     /opt/OpenbravoTablero/modules/org.openbravo.base.weld/lib/runtime/weld-spi.jar
7fe820d4f000-7fe820d52000 r--s 00011000 fd:01 518222                     /opt/OpenbravoTablero/modules/org.openbravo.base.weld/lib/runtime/weld-servlet-core-1.1.24.Final.jar
7fe820d52000-7fe820d64000 r--s 000ce000 fd:01 518212                     /opt/OpenbravoTablero/modules/org.openbravo.base.weld/lib/runtime/weld-core-1.1.24.Final.jar
7fe820d64000-7fe820d66000 r--s 00004000 fd:01 518213                     /opt/OpenbravoTablero/modules/org.openbravo.base.weld/lib/runtime/weld-api.jar
7fe820d66000-7fe820d68000 r--s 00009000 fd:01 518211                     /opt/OpenbravoTablero/modules/org.openbravo.base.weld/lib/runtime/slf4j-ext-1.6.1.jar
7fe820d68000-7fe820d69000 r--s 00001000 fd:01 518214                     /opt/OpenbravoTablero/modules/org.openbravo.base.weld/lib/runtime/jboss-interceptor-spi-2.0.0.CR1.jar
7fe820d69000-7fe820d6c000 r--s 0000c000 fd:01 518220                     /opt/OpenbravoTablero/modules/org.openbravo.base.weld/lib/runtime/jboss-interceptor-core-2.0.0.CR1.jar
7fe820d6c000-7fe820d6e000 r--s 00000000 fd:01 518210                     /opt/OpenbravoTablero/modules/org.openbravo.base.weld/lib/runtime/jboss-interceptor-api-3.1.0-CR3.jar
7fe820d6e000-7fe820d6f000 r--s 00000000 fd:01 518221                     /opt/OpenbravoTablero/modules/org.openbravo.base.weld/lib/runtime/javax.inject.jar
7fe820d6f000-7fe820d9a000 r--s 001fc000 fd:01 518217                     /opt/OpenbravoTablero/modules/org.openbravo.base.weld/lib/runtime/guava-18.0.jar
7fe820d9a000-7fe820d9d000 r--s 00006000 fd:01 518219                     /opt/OpenbravoTablero/modules/org.openbravo.base.weld/lib/runtime/ejb-api-3.0.jar
7fe820d9d000-7fe820da0000 r--s 0000a000 fd:01 518218                     /opt/OpenbravoTablero/modules/org.openbravo.base.weld/lib/runtime/cdi-api.jar
7fe820da0000-7fe820da2000 r--s 00006000 fd:01 518215                     /opt/OpenbravoTablero/modules/org.openbravo.base.weld/lib/runtime/cal10n-api-0.7.4.jar
7fe820da2000-7fe820da3000 r--s 00006000 fd:01 522533                     /opt/OpenbravoTablero/modules/org.openbravo.apachejdbcconnectionpool/lib/runtime/tomcat-juli.jar
7fe820da3000-7fe820da5000 r--s 0001d000 fd:01 522532                     /opt/OpenbravoTablero/modules/org.openbravo.apachejdbcconnectionpool/lib/runtime/tomcat-jdbc.jar
7fe820da5000-7fe820db1000 r--s 00096000 fd:01 1076806                    /opt/OpenbravoTablero/modules/com.atrums.felectronica/lib/runtime/xmlsec-1.4.2-ADSI-1.1.jar
7fe820db1000-7fe820db4000 r--s 00018000 fd:01 1076805                    /opt/OpenbravoTablero/modules/com.atrums.felectronica/lib/runtime/xmlrpc-1.2-b1.jar
7fe820db4000-7fe820db5000 r--s 00007000 fd:01 1076804                    /opt/OpenbravoTablero/modules/com.atrums.felectronica/lib/runtime/xmlrpc-1.2-b1-applet.jar
7fe820db5000-7fe820dba000 r--s 0002d000 fd:01 1076795                    /opt/OpenbravoTablero/modules/com.atrums.felectronica/lib/runtime/bcmail-jdk15-140.jar
7fe820dba000-7fe820dbd000 r--s 00014000 fd:01 1076794                    /opt/OpenbravoTablero/modules/com.atrums.felectronica/lib/runtime/barbecue-1.5-beta1.jar
7fe820dbd000-7fe820dc5000 r--s 0007a000 fd:01 1076803                    /opt/OpenbravoTablero/modules/com.atrums.felectronica/lib/runtime/MITyCLibXADES-1.1.7.jar
7fe820dc5000-7fe820dcb000 r--s 00047000 fd:01 1076801                    /opt/OpenbravoTablero/modules/com.atrums.felectronica/lib/runtime/MITyCLibTrust-1.1.7.jar
7fe820dcb000-7fe820dcc000 r--s 00011000 fd:01 1076802                    /opt/OpenbravoTablero/modules/com.atrums.felectronica/lib/runtime/MITyCLibTSA-1.1.7.jar
7fe820dcc000-7fe820dce000 r--s 00019000 fd:01 1076800                    /opt/OpenbravoTablero/modules/com.atrums.felectronica/lib/runtime/MITyCLibPolicy-1.1.7.jar
7fe820dce000-7fe820dd0000 r--s 0001c000 fd:01 1076799                    /opt/OpenbravoTablero/modules/com.atrums.felectronica/lib/runtime/MITyCLibOCSP-1.1.7.jar
7fe820dd0000-7fe820dd2000 r--s 0001f000 fd:01 1076798                    /opt/OpenbravoTablero/modules/com.atrums.felectronica/lib/runtime/MITyCLibCrypt-1.1.7.jar
7fe820dd2000-7fe820dd9000 r--s 0044c000 fd:01 1076797                    /opt/OpenbravoTablero/modules/com.atrums.felectronica/lib/runtime/MITyCLibCert-1.1.7.jar
7fe820dd9000-7fe820ddd000 r--s 00029000 fd:01 1076796                    /opt/OpenbravoTablero/modules/com.atrums.felectronica/lib/runtime/MITyCLibAPI-1.1.7.jar
7fe820ddd000-7fe820de3000 r--s 0006e000 fd:01 278520                     /opt/OpenbravoTablero/src-db/database/lib/wstx-asl-3.0.2.jar
7fe820de3000-7fe820de5000 r--s 0000e000 fd:01 278521                     /opt/OpenbravoTablero/src-db/database/lib/jakarta-oro-2.0.8.jar
7fe820de5000-7fe820df0000 r--s 000b4000 fd:01 278518                     /opt/OpenbravoTablero/src-db/database/lib/dbsourcemanager.jar
7fe820df0000-7fe820df1000 r--s 00001000 fd:01 278522                     /opt/OpenbravoTablero/src-db/database/lib/dbmanager.jar
7fe820df1000-7fe820df7000 r--s 00036000 fd:01 278519                     /opt/OpenbravoTablero/src-db/database/lib/commons-betwixt-0.8.jar
7fe820df7000-7fe820dfc000 r--s 00066000 fd:01 523757                     /opt/OpenbravoTablero/src-wad/lib/openbravo-wad.jar
7fe820dfc000-7fe820dfd000 r--s 00005000 fd:01 522897                     /opt/OpenbravoTablero/src-trl/lib/openbravo-trl.jar
7fe820dfd000-7fe820e01000 r--s 0003d000 fd:01 516417                     /opt/OpenbravoTablero/src-core/lib/openbravo-core.jar
7fe820e01000-7fe820e07000 r--s 00036000 fd:01 276925                     /opt/OpenbravoTablero/lib/test/junit.jar
7fe820e07000-7fe820e0d000 r--s 00045000 fd:01 276926                     /opt/OpenbravoTablero/lib/test/hamcrest-all-1.3.jar
7fe820e0d000-7fe820e18000 r--s 0005f000 fd:01 276970                     /opt/OpenbravoTablero/lib/runtime/xstream-1.3.1.jar
7fe820e18000-7fe820e22000 r--s 00089000 fd:01 276977                     /opt/OpenbravoTablero/lib/runtime/xmlgraphics-commons-1.5.jar
7fe820e22000-7fe820e39000 r--s 00114000 fd:01 276929                     /opt/OpenbravoTablero/lib/runtime/xercesImpl.jar
7fe820e39000-7fe820e3c000 r--s 0001c000 fd:01 276992                     /opt/OpenbravoTablero/lib/runtime/wsdl4j-1.5.1.jar
7fe820e3c000-7fe820e42000 r--s 0004b000 fd:01 276945                     /opt/OpenbravoTablero/lib/runtime/tika-core-0.9.jar
7fe820e42000-7fe820e43000 r--s 00002000 fd:01 276950                     /opt/OpenbravoTablero/lib/runtime/slf4j-log4j12-1.6.1.jar
7fe820e43000-7fe820e45000 r--s 00005000 fd:01 276960                     /opt/OpenbravoTablero/lib/runtime/slf4j-api-1.6.1.jar
7fe820e45000-7fe820e46000 r--s 00001000 fd:01 276954                     /opt/OpenbravoTablero/lib/runtime/renderFoRmi.jar
7fe820e46000-7fe820e4c000 r--s 00067000 fd:01 276989                     /opt/OpenbravoTablero/lib/runtime/quartz-1.6.2.jar
7fe820e4c000-7fe820e53000 r--s 0008e000 fd:01 276936                     /opt/OpenbravoTablero/lib/runtime/postgresql-9.4.1207.jre6.jar
7fe820e53000-7fe820e74000 r--s 001bb000 fd:01 276988                     /opt/OpenbravoTablero/lib/runtime/poi-3.10.1.jar
7fe820e74000-7fe820e78000 r--s 0003d000 fd:01 276967                     /opt/OpenbravoTablero/lib/runtime/openbravo-core.jar
7fe820e78000-7fe820e8a000 r--s 001fc000 fd:01 276962                     /opt/OpenbravoTablero/lib/runtime/ojdbc6.jar
7fe820e8a000-7fe820e8c000 r--s 00018000 fd:01 276976                     /opt/OpenbravoTablero/lib/runtime/nekohtml.jar
7fe820e8c000-7fe820e93000 r--s 00072000 fd:01 276938                     /opt/OpenbravoTablero/lib/runtime/mail-1.4.4.jar
7fe820e93000-7fe820e9c000 r--s 0006d000 fd:01 276986                     /opt/OpenbravoTablero/lib/runtime/log4j-1.2.16.jar
7fe820e9c000-7fe820ea8000 r--s 000aa000 fd:01 276965                     /opt/OpenbravoTablero/lib/runtime/jxl-2.6.10.jar
7fe820ea8000-7fe820eaa000 r--s 00001000 fd:01 276949                     /opt/OpenbravoTablero/lib/runtime/jta.jar
7fe820eaa000-7fe820eba000 r--s 0013f000 fd:01 276933                     /opt/OpenbravoTablero/lib/runtime/jfreechart-1.0.12.jar
7fe820eba000-7fe820ebc000 r--s 00010000 fd:01 276951                     /opt/OpenbravoTablero/lib/runtime/jettison-1.3.jar
7fe820ebc000-7fe820ece000 r--s 00223000 fd:01 276971                     /opt/OpenbravoTablero/lib/runtime/jdt-compiler-4.4.2.jar
7fe820ece000-7fe820ed4000 r--s 00046000 fd:01 276952                     /opt/OpenbravoTablero/lib/runtime/jcommon-1.0.15.jar
7fe820ed4000-7fe820ed6000 r--s 00006000 fd:01 276996                     /opt/OpenbravoTablero/lib/runtime/jaxrpc.jar
7fe820ed6000-7fe820edf000 r--s 00095000 fd:01 276953                     /opt/OpenbravoTablero/lib/runtime/javassist-3.14.0-GA.jar
7fe820edf000-7fe820ee1000 r--s 0025c000 fd:01 276930                     /opt/OpenbravoTablero/lib/runtime/jasperreports-fonts-6.0.0.jar
7fe820ee1000-7fe820f3d000 r--s 0048c000 fd:01 276937                     /opt/OpenbravoTablero/lib/runtime/jasperreports-6.0.0.jar
7fe820f3d000-7fe820f4f000 r--s 00105000 fd:01 276987                     /opt/OpenbravoTablero/lib/runtime/jackson-databind-2.5.1.jar
7fe820f4f000-7fe820f53000 r--s 00035000 fd:01 276966                     /opt/OpenbravoTablero/lib/runtime/jackson-core-2.5.1.jar
7fe820f53000-7fe820f55000 r--s 00008000 fd:01 276981                     /opt/OpenbravoTablero/lib/runtime/jackson-annotations-2.5.1.jar
7fe820f55000-7fe820f6b000 r--s 001ef000 fd:01 276956                     /opt/OpenbravoTablero/lib/runtime/itextpdf-5.5.0.jar
7fe820f6b000-7fe820f6d000 r--s 0000c000 fd:01 276955                     /opt/OpenbravoTablero/lib/runtime/itext-pdfa-5.5.0.jar
7fe820f6d000-7fe820f79000 r--s 00108000 fd:01 276978                     /opt/OpenbravoTablero/lib/runtime/iText-2.1.7.jar
7fe820f79000-7fe820fc1000 r--s 003aa000 fd:01 276946                     /opt/OpenbravoTablero/lib/runtime/hibernate3-patched.jar
7fe820fc1000-7fe820fc6000 r--s 00014000 fd:01 276984                     /opt/OpenbravoTablero/lib/runtime/hibernate-jpa-2.0-api-1.0.0.Final.jar
7fe820fc6000-7fe820fd6000 r--s 000c8000 fd:01 276932                     /opt/OpenbravoTablero/lib/runtime/freemarker-2.3.16.jar
7fe820fd6000-7fe82100f000 r--s 00329000 fd:01 276998                     /opt/OpenbravoTablero/lib/runtime/fop-1.1.jar
7fe82100f000-7fe821014000 r--s 00048000 fd:01 276974                     /opt/OpenbravoTablero/lib/runtime/dom4j-1.6.1.jar
7fe821014000-7fe821017000 r--s 00016000 fd:01 276959                     /opt/OpenbravoTablero/lib/runtime/commons-pool-1.5.6.jar
7fe821017000-7fe821019000 r--s 0000d000 fd:01 276935                     /opt/OpenbravoTablero/lib/runtime/commons-logging-1.1.1.jar
7fe821019000-7fe82101e000 r--s 00041000 fd:01 276993                     /opt/OpenbravoTablero/lib/runtime/commons-lang-2.6.jar
7fe82101e000-7fe821022000 r--s 0002a000 fd:01 276973                     /opt/OpenbravoTablero/lib/runtime/commons-io-2.4.jar
7fe821022000-7fe821024000 r--s 0000d000 fd:01 276958                     /opt/OpenbravoTablero/lib/runtime/commons-fileupload-1.2.2.jar
7fe821024000-7fe821027000 r--s 0000f000 fd:01 276972                     /opt/OpenbravoTablero/lib/runtime/commons-discovery-0.2.jar
7fe821027000-7fe82102b000 r--s 00020000 fd:01 276995                     /opt/OpenbravoTablero/lib/runtime/commons-digester-1.8.1.jar
7fe82102b000-7fe82102e000 r--s 00025000 fd:01 276982                     /opt/OpenbravoTablero/lib/runtime/commons-dbcp-1.4.jar
7fe82102e000-7fe82103c000 r--s 0007f000 fd:01 276944                     /opt/OpenbravoTablero/lib/runtime/commons-collections-3.2.1.jar
7fe82103c000-7fe82103e000 r--s 00010000 fd:01 276994                     /opt/OpenbravoTablero/lib/runtime/commons-codec-1.5.jar
7fe82103e000-7fe821043000 r--s 00034000 fd:01 276979                     /opt/OpenbravoTablero/lib/runtime/commons-beanutils-1.8.3.jar
7fe821043000-7fe821045000 r--s 00005000 fd:01 276941                     /opt/OpenbravoTablero/lib/runtime/catalina-ant.jar
7fe821045000-7fe821046000 r--s 00007000 fd:01 276990                     /opt/OpenbravoTablero/lib/runtime/batik-xml.jar
7fe821046000-7fe821049000 r--s 0001d000 fd:01 276969                     /opt/OpenbravoTablero/lib/runtime/batik-util.jar
7fe821049000-7fe82104e000 r--s 00030000 fd:01 276980                     /opt/OpenbravoTablero/lib/runtime/batik-svggen.jar
7fe82104e000-7fe82105b000 r--s 00087000 fd:01 276975                     /opt/OpenbravoTablero/lib/runtime/batik-svg-dom.jar
7fe82105b000-7fe82105e000 r--s 0000d000 fd:01 276943                     /opt/OpenbravoTablero/lib/runtime/batik-script.jar
7fe82105e000-7fe821060000 r--s 00010000 fd:01 276983                     /opt/OpenbravoTablero/lib/runtime/batik-parser.jar
7fe821060000-7fe821064000 r--s 00038000 fd:01 276963                     /opt/OpenbravoTablero/lib/runtime/batik-gvt.jar
7fe821064000-7fe821065000 r--s 00002000 fd:01 276961                     /opt/OpenbravoTablero/lib/runtime/batik-ext.jar
7fe821065000-7fe821069000 r--s 00027000 fd:01 276942                     /opt/OpenbravoTablero/lib/runtime/batik-dom.jar
7fe821069000-7fe821071000 r--s 00045000 fd:01 276940                     /opt/OpenbravoTablero/lib/runtime/batik-css.jar
7fe821071000-7fe82107b000 r--s 00080000 fd:01 276968                     /opt/OpenbravoTablero/lib/runtime/batik-bridge.jar
7fe82107b000-7fe821082000 r--s 0005c000 fd:01 276997                     /opt/OpenbravoTablero/lib/runtime/batik-awt-util.jar
7fe821082000-7fe821085000 r--s 00015000 fd:01 276928                     /opt/OpenbravoTablero/lib/runtime/batik-anim.jar
7fe821085000-7fe82108b000 r--s 00043000 fd:01 276957                     /opt/OpenbravoTablero/lib/runtime/barcode4j-fop-ext-complete.jar
7fe82108b000-7fe82109f000 r--s 00173000 fd:01 276985                     /opt/OpenbravoTablero/lib/runtime/axis.jar
7fe82109f000-7fe8210a1000 r--s 00007000 fd:01 276964                     /opt/OpenbravoTablero/lib/runtime/axis-ant.jar
7fe8210a1000-7fe8210a4000 r--s 0000f000 fd:01 276947                     /opt/OpenbravoTablero/lib/runtime/avalon-framework-4.1.5.jar
7fe8210a4000-7fe8210a9000 r--s 00068000 fd:01 276934                     /opt/OpenbravoTablero/lib/runtime/antlr-2.7.7.jar
7fe8210a9000-7fe8210b1000 r--s 00063000 fd:01 276948                     /opt/OpenbravoTablero/lib/runtime/ant-nodeps.jar
7fe8210b1000-7fe8210b2000 r--s 00004000 fd:01 276931                     /opt/OpenbravoTablero/lib/runtime/ant-launcher-1.9.2.jar
7fe8210b2000-7fe8210b4000 r--s 00001000 fd:01 276991                     /opt/OpenbravoTablero/lib/runtime/ant-apache-log4j-1.9.2.jar
7fe8210b4000-7fe8210d2000 r--s 001cb000 fd:01 276939                     /opt/OpenbravoTablero/lib/runtime/ant-1.9.2.jar
7fe8210d2000-7fe8210db000 r--s 000c7000 fd:01 276919                     /opt/OpenbravoTablero/lib/build/yuicompressor-2.4.2.jar
7fe8210db000-7fe8210dd000 r--s 00014000 fd:01 276920                     /opt/OpenbravoTablero/lib/build/servlet-api.jar
7fe8210dd000-7fe8210e6000 r--s 000be000 fd:01 276922                     /opt/OpenbravoTablero/lib/build/ob-rhino-1.6R7.jar
7fe8210e6000-7fe8210ef000 r--s 000cc000 fd:01 276921                     /opt/OpenbravoTablero/lib/build/js.jar
7fe8210ef000-7fe82110a000 r--s 00394000 fd:01 785206                     /usr/lib/jvm/java-8-openjdk-amd64/jre/lib/ext/cldrdata.jar
7fe82110a000-7fe821125000 r--s 001d6000 fd:01 785208                     /usr/lib/jvm/java-8-openjdk-amd64/jre/lib/ext/nashorn.jar
7fe821125000-7fe821126000 ---p 00000000 00:00 0 
7fe821126000-7fe821226000 rw-p 00000000 00:00 0 
7fe821226000-7fe821229000 ---p 00000000 00:00 0 
7fe821229000-7fe821327000 rw-p 00000000 00:00 0 
7fe821327000-7fe82132a000 ---p 00000000 00:00 0 
7fe82132a000-7fe821428000 rw-p 00000000 00:00 0 
7fe821428000-7fe82142b000 ---p 00000000 00:00 0 
7fe82142b000-7fe821529000 rw-p 00000000 00:00 0 
7fe821529000-7fe82152c000 ---p 00000000 00:00 0 
7fe82152c000-7fe82162a000 rw-p 00000000 00:00 0 
7fe82162a000-7fe8217c2000 r--p 00000000 fd:01 2061                       /usr/lib/locale/locale-archive
7fe8217c2000-7fe8217c5000 ---p 00000000 00:00 0 
7fe8217c5000-7fe8218c3000 rw-p 00000000 00:00 0 
7fe8218c3000-7fe8218c6000 ---p 00000000 00:00 0 
7fe8218c6000-7fe8219c4000 rw-p 00000000 00:00 0 
7fe8219c4000-7fe8219c5000 ---p 00000000 00:00 0 
7fe8219c5000-7fe822431000 rw-p 00000000 00:00 0 
7fe822431000-7fe822600000 r--s 03c21000 fd:01 533088                     /usr/lib/jvm/java-8-openjdk-amd64/jre/lib/rt.jar
7fe822600000-7fe825000000 rw-p 00000000 00:00 0 
7fe825000000-7fe8257b0000 rwxp 00000000 00:00 0 
7fe8257b0000-7fe834000000 ---p 00000000 00:00 0 
7fe834000000-7fe834ec5000 rw-p 00000000 00:00 0 
7fe834ec5000-7fe838000000 ---p 00000000 00:00 0 
7fe838000000-7fe838006000 r--s 0003a000 fd:01 785209                     /usr/lib/jvm/java-8-openjdk-amd64/jre/lib/ext/sunjce_provider.jar
7fe838006000-7fe838010000 r--s 00116000 fd:01 785211                     /usr/lib/jvm/java-8-openjdk-amd64/jre/lib/ext/localedata.jar
7fe838010000-7fe838014000 r--s 00037000 fd:01 785212                     /usr/lib/jvm/java-8-openjdk-amd64/jre/lib/ext/sunpkcs11.jar
7fe838014000-7fe83808a000 rw-p 00000000 00:00 0 
7fe83808a000-7fe83808b000 ---p 00000000 00:00 0 
7fe83808b000-7fe83818b000 rw-p 00000000 00:00 0 
7fe83818b000-7fe83818c000 ---p 00000000 00:00 0 
7fe83818c000-7fe83829c000 rw-p 00000000 00:00 0 
7fe83829c000-7fe8383e2000 ---p 00000000 00:00 0 
7fe8383e2000-7fe8383f2000 rw-p 00000000 00:00 0 
7fe8383f2000-7fe838537000 ---p 00000000 00:00 0 
7fe838537000-7fe8385a0000 rw-p 00000000 00:00 0 
7fe8385a0000-7fe8385e2000 ---p 00000000 00:00 0 
7fe8385e2000-7fe838602000 rw-p 00000000 00:00 0 
7fe838602000-7fe8389a3000 ---p 00000000 00:00 0 
7fe8389a3000-7fe8389ab000 r-xp 00000000 fd:01 785239                     /usr/lib/jvm/java-8-openjdk-amd64/jre/lib/amd64/libzip.so
7fe8389ab000-7fe838baa000 ---p 00008000 fd:01 785239                     /usr/lib/jvm/java-8-openjdk-amd64/jre/lib/amd64/libzip.so
7fe838baa000-7fe838bab000 r--p 00007000 fd:01 785239                     /usr/lib/jvm/java-8-openjdk-amd64/jre/lib/amd64/libzip.so
7fe838bab000-7fe838bac000 rw-p 00008000 fd:01 785239                     /usr/lib/jvm/java-8-openjdk-amd64/jre/lib/amd64/libzip.so
7fe838bac000-7fe838bb7000 r-xp 00000000 fd:01 21329                      /lib/x86_64-linux-gnu/libnss_files-2.23.so
7fe838bb7000-7fe838db6000 ---p 0000b000 fd:01 21329                      /lib/x86_64-linux-gnu/libnss_files-2.23.so
7fe838db6000-7fe838db7000 r--p 0000a000 fd:01 21329                      /lib/x86_64-linux-gnu/libnss_files-2.23.so
7fe838db7000-7fe838db8000 rw-p 0000b000 fd:01 21329                      /lib/x86_64-linux-gnu/libnss_files-2.23.so
7fe838db8000-7fe838dbe000 rw-p 00000000 00:00 0 
7fe838dbe000-7fe838dc9000 r-xp 00000000 fd:01 21341                      /lib/x86_64-linux-gnu/libnss_nis-2.23.so
7fe838dc9000-7fe838fc8000 ---p 0000b000 fd:01 21341                      /lib/x86_64-linux-gnu/libnss_nis-2.23.so
7fe838fc8000-7fe838fc9000 r--p 0000a000 fd:01 21341                      /lib/x86_64-linux-gnu/libnss_nis-2.23.so
7fe838fc9000-7fe838fca000 rw-p 0000b000 fd:01 21341                      /lib/x86_64-linux-gnu/libnss_nis-2.23.so
7fe838fca000-7fe838fe0000 r-xp 00000000 fd:01 21246                      /lib/x86_64-linux-gnu/libnsl-2.23.so
7fe838fe0000-7fe8391df000 ---p 00016000 fd:01 21246                      /lib/x86_64-linux-gnu/libnsl-2.23.so
7fe8391df000-7fe8391e0000 r--p 00015000 fd:01 21246                      /lib/x86_64-linux-gnu/libnsl-2.23.so
7fe8391e0000-7fe8391e1000 rw-p 00016000 fd:01 21246                      /lib/x86_64-linux-gnu/libnsl-2.23.so
7fe8391e1000-7fe8391e3000 rw-p 00000000 00:00 0 
7fe8391e3000-7fe8391eb000 r-xp 00000000 fd:01 21298                      /lib/x86_64-linux-gnu/libnss_compat-2.23.so
7fe8391eb000-7fe8393ea000 ---p 00008000 fd:01 21298                      /lib/x86_64-linux-gnu/libnss_compat-2.23.so
7fe8393ea000-7fe8393eb000 r--p 00007000 fd:01 21298                      /lib/x86_64-linux-gnu/libnss_compat-2.23.so
7fe8393eb000-7fe8393ec000 rw-p 00008000 fd:01 21298                      /lib/x86_64-linux-gnu/libnss_compat-2.23.so
7fe8393ec000-7fe839419000 r-xp 00000000 fd:01 785224                     /usr/lib/jvm/java-8-openjdk-amd64/jre/lib/amd64/libjava.so
7fe839419000-7fe839618000 ---p 0002d000 fd:01 785224                     /usr/lib/jvm/java-8-openjdk-amd64/jre/lib/amd64/libjava.so
7fe839618000-7fe839619000 r--p 0002c000 fd:01 785224                     /usr/lib/jvm/java-8-openjdk-amd64/jre/lib/amd64/libjava.so
7fe839619000-7fe83961b000 rw-p 0002d000 fd:01 785224                     /usr/lib/jvm/java-8-openjdk-amd64/jre/lib/amd64/libjava.so
7fe83961b000-7fe83962a000 r-xp 00000000 fd:01 785237                     /usr/lib/jvm/java-8-openjdk-amd64/jre/lib/amd64/libverify.so
7fe83962a000-7fe839829000 ---p 0000f000 fd:01 785237                     /usr/lib/jvm/java-8-openjdk-amd64/jre/lib/amd64/libverify.so
7fe839829000-7fe83982b000 r--p 0000e000 fd:01 785237                     /usr/lib/jvm/java-8-openjdk-amd64/jre/lib/amd64/libverify.so
7fe83982b000-7fe83982c000 rw-p 00010000 fd:01 785237                     /usr/lib/jvm/java-8-openjdk-amd64/jre/lib/amd64/libverify.so
7fe83982c000-7fe839833000 r-xp 00000000 fd:01 21343                      /lib/x86_64-linux-gnu/librt-2.23.so
7fe839833000-7fe839a32000 ---p 00007000 fd:01 21343                      /lib/x86_64-linux-gnu/librt-2.23.so
7fe839a32000-7fe839a33000 r--p 00006000 fd:01 21343                      /lib/x86_64-linux-gnu/librt-2.23.so
7fe839a33000-7fe839a34000 rw-p 00007000 fd:01 21343                      /lib/x86_64-linux-gnu/librt-2.23.so
7fe839a34000-7fe839a4a000 r-xp 00000000 fd:01 2039                       /lib/x86_64-linux-gnu/libgcc_s.so.1
7fe839a4a000-7fe839c49000 ---p 00016000 fd:01 2039                       /lib/x86_64-linux-gnu/libgcc_s.so.1
7fe839c49000-7fe839c4a000 rw-p 00015000 fd:01 2039                       /lib/x86_64-linux-gnu/libgcc_s.so.1
7fe839c4a000-7fe839d52000 r-xp 00000000 fd:01 21243                      /lib/x86_64-linux-gnu/libm-2.23.so
7fe839d52000-7fe839f51000 ---p 00108000 fd:01 21243                      /lib/x86_64-linux-gnu/libm-2.23.so
7fe839f51000-7fe839f52000 r--p 00107000 fd:01 21243                      /lib/x86_64-linux-gnu/libm-2.23.so
7fe839f52000-7fe839f53000 rw-p 00108000 fd:01 21243                      /lib/x86_64-linux-gnu/libm-2.23.so
7fe839f53000-7fe83a0c5000 r-xp 00000000 fd:01 25804                      /usr/lib/x86_64-linux-gnu/libstdc++.so.6.0.21
7fe83a0c5000-7fe83a2c5000 ---p 00172000 fd:01 25804                      /usr/lib/x86_64-linux-gnu/libstdc++.so.6.0.21
7fe83a2c5000-7fe83a2cf000 r--p 00172000 fd:01 25804                      /usr/lib/x86_64-linux-gnu/libstdc++.so.6.0.21
7fe83a2cf000-7fe83a2d1000 rw-p 0017c000 fd:01 25804                      /usr/lib/x86_64-linux-gnu/libstdc++.so.6.0.21
7fe83a2d1000-7fe83a2d5000 rw-p 00000000 00:00 0 
7fe83a2d5000-7fe83af27000 r-xp 00000000 fd:01 1046829                    /usr/lib/jvm/java-8-openjdk-amd64/jre/lib/amd64/server/libjvm.so
7fe83af27000-7fe83b127000 ---p 00c52000 fd:01 1046829                    /usr/lib/jvm/java-8-openjdk-amd64/jre/lib/amd64/server/libjvm.so
7fe83b127000-7fe83b1ba000 r--p 00c52000 fd:01 1046829                    /usr/lib/jvm/java-8-openjdk-amd64/jre/lib/amd64/server/libjvm.so
7fe83b1ba000-7fe83b1e3000 rw-p 00ce5000 fd:01 1046829                    /usr/lib/jvm/java-8-openjdk-amd64/jre/lib/amd64/server/libjvm.so
7fe83b1e3000-7fe83b213000 rw-p 00000000 00:00 0 
7fe83b213000-7fe83b22b000 r-xp 00000000 fd:01 21248                      /lib/x86_64-linux-gnu/libpthread-2.23.so
7fe83b22b000-7fe83b42a000 ---p 00018000 fd:01 21248                      /lib/x86_64-linux-gnu/libpthread-2.23.so
7fe83b42a000-7fe83b42b000 r--p 00017000 fd:01 21248                      /lib/x86_64-linux-gnu/libpthread-2.23.so
7fe83b42b000-7fe83b42c000 rw-p 00018000 fd:01 21248                      /lib/x86_64-linux-gnu/libpthread-2.23.so
7fe83b42c000-7fe83b430000 rw-p 00000000 00:00 0 
7fe83b430000-7fe83b433000 r-xp 00000000 fd:01 21251                      /lib/x86_64-linux-gnu/libdl-2.23.so
7fe83b433000-7fe83b632000 ---p 00003000 fd:01 21251                      /lib/x86_64-linux-gnu/libdl-2.23.so
7fe83b632000-7fe83b633000 r--p 00002000 fd:01 21251                      /lib/x86_64-linux-gnu/libdl-2.23.so
7fe83b633000-7fe83b634000 rw-p 00003000 fd:01 21251                      /lib/x86_64-linux-gnu/libdl-2.23.so
7fe83b634000-7fe83b64d000 r-xp 00000000 fd:01 2193                       /lib/x86_64-linux-gnu/libz.so.1.2.8
7fe83b64d000-7fe83b84c000 ---p 00019000 fd:01 2193                       /lib/x86_64-linux-gnu/libz.so.1.2.8
7fe83b84c000-7fe83b84d000 r--p 00018000 fd:01 2193                       /lib/x86_64-linux-gnu/libz.so.1.2.8
7fe83b84d000-7fe83b84e000 rw-p 00019000 fd:01 2193                       /lib/x86_64-linux-gnu/libz.so.1.2.8
7fe83b84e000-7fe83ba0e000 r-xp 00000000 fd:01 21249                      /lib/x86_64-linux-gnu/libc-2.23.so
7fe83ba0e000-7fe83bc0e000 ---p 001c0000 fd:01 21249                      /lib/x86_64-linux-gnu/libc-2.23.so
7fe83bc0e000-7fe83bc12000 r--p 001c0000 fd:01 21249                      /lib/x86_64-linux-gnu/libc-2.23.so
7fe83bc12000-7fe83bc14000 rw-p 001c4000 fd:01 21249                      /lib/x86_64-linux-gnu/libc-2.23.so
7fe83bc14000-7fe83bc18000 rw-p 00000000 00:00 0 
7fe83bc18000-7fe83bc25000 r-xp 00000000 fd:01 785235                     /usr/lib/jvm/java-8-openjdk-amd64/jre/lib/amd64/jli/libjli.so
7fe83bc25000-7fe83be25000 ---p 0000d000 fd:01 785235                     /usr/lib/jvm/java-8-openjdk-amd64/jre/lib/amd64/jli/libjli.so
7fe83be25000-7fe83be26000 r--p 0000d000 fd:01 785235                     /usr/lib/jvm/java-8-openjdk-amd64/jre/lib/amd64/jli/libjli.so
7fe83be26000-7fe83be27000 rw-p 0000e000 fd:01 785235                     /usr/lib/jvm/java-8-openjdk-amd64/jre/lib/amd64/jli/libjli.so
7fe83be27000-7fe83be4d000 r-xp 00000000 fd:01 21247                      /lib/x86_64-linux-gnu/ld-2.23.so
7fe83be4d000-7fe83be4f000 r--s 00001000 fd:01 785214                     /usr/lib/jvm/java-8-openjdk-amd64/jre/lib/ext/dnsns.jar
7fe83be4f000-7fe83be51000 r--s 00008000 fd:01 785210                     /usr/lib/jvm/java-8-openjdk-amd64/jre/lib/ext/sunec.jar
7fe83be51000-7fe83bf36000 rw-p 00000000 00:00 0 
7fe83bf36000-7fe83bf3e000 rw-s 00000000 fd:01 2561                       /tmp/hsperfdata_root/32300
7fe83bf3e000-7fe83bf41000 ---p 00000000 00:00 0 
7fe83bf41000-7fe83c043000 rw-p 00000000 00:00 0 
7fe83c043000-7fe83c044000 r--s 00001000 fd:01 276918                     /opt/OpenbravoTablero/lib/build/YUIAnt.jar
7fe83c044000-7fe83c045000 r--s 00010000 fd:01 785207                     /usr/lib/jvm/java-8-openjdk-amd64/jre/lib/ext/zipfs.jar
7fe83c045000-7fe83c048000 r--s 0000f000 fd:01 785205                     /usr/lib/jvm/java-8-openjdk-amd64/jre/lib/ext/icedtea-sound.jar
7fe83c048000-7fe83c049000 r--s 0000a000 fd:01 785213                     /usr/lib/jvm/java-8-openjdk-amd64/jre/lib/ext/jaccess.jar
7fe83c049000-7fe83c04a000 rw-p 00000000 00:00 0 
7fe83c04a000-7fe83c04b000 ---p 00000000 00:00 0 
7fe83c04b000-7fe83c04c000 rw-p 00000000 00:00 0 
7fe83c04c000-7fe83c04d000 r--p 00025000 fd:01 21247                      /lib/x86_64-linux-gnu/ld-2.23.so
7fe83c04d000-7fe83c04e000 rw-p 00026000 fd:01 21247                      /lib/x86_64-linux-gnu/ld-2.23.so
7fe83c04e000-7fe83c04f000 rw-p 00000000 00:00 0 
7ffec6eea000-7ffec6f0e000 rw-p 00000000 00:00 0                          [stack]
7ffec6fe4000-7ffec6fe7000 r--p 00000000 00:00 0                          [vvar]
7ffec6fe7000-7ffec6fe9000 r-xp 00000000 00:00 0                          [vdso]
ffffffffff600000-ffffffffff601000 r-xp 00000000 00:00 0                  [vsyscall]

VM Arguments:
jvm_args: -Xmx1024M 
java_command: org.openbravo.base.gen.GenerateEntitiesTask /opt/OpenbravoTablero/src false
java_class_path (initial): /opt/OpenbravoTablero/modules/org.openbravo.advpaymentmngt/build/classes:/opt/OpenbravoTablero/modules/org.openbravo.advpaymentmngt/build/classes/org:/opt/OpenbravoTablero/modules/org.openbravo.advpaymentmngt/build/classes/org/openbravo:/opt/OpenbravoTablero/modules/org.openbravo.advpaymentmngt/build/classes/org/openbravo/advpaymentmngt:/opt/OpenbravoTablero/modules/org.openbravo.advpaymentmngt/build/classes/org/openbravo/advpaymentmngt/buildvalidation:/opt/OpenbravoTablero/modules/org.openbravo.advpaymentmngt/build/classes/org/openbravo/advpaymentmngt/modulescript:/opt/OpenbravoTablero/modules/org.openbravo.userinterface.selector/build/classes:/opt/OpenbravoTablero/modules/org.openbravo.userinterface.selector/build/classes/org:/opt/OpenbravoTablero/modules/org.openbravo.userinterface.selector/build/classes/org/openbravo:/opt/OpenbravoTablero/modules/org.openbravo.userinterface.selector/build/classes/org/openbravo/userinterface:/opt/OpenbravoTablero/modules/org.openbravo.userinterface.selector/build/classes/org/openbravo/userinterface/selector:/opt/OpenbravoTablero/modules/org.openbravo.userinterface.skin.250to300Comp/build/classes:/opt/OpenbravoTablero/modules/org.openbravo.userinterface.skin.250to300Comp/build/classes/org:/opt/OpenbravoTablero/modules/org.openbravo.userinterface.skin.250to300Comp/build/classes/org/openbravo:/opt/OpenbravoTablero/modules/org.openbravo.userinterface.skin.250to300Comp/build/classes/org/openbravo/userinterface:/opt/OpenbravoTablero/modules/org.openbravo.userinterface.skin.250to300Comp/build/classes/org/openbravo/userinterface/skin:/opt/OpenbravoTablero/modules/org.openbravo.userinterface.skin.250to300Comp/build/classes/org/openbravo/userinterface/skin/s250to300Comp:/opt/OpenbravoTablero/modules/org.openbravo.userinterface.skin.250to300Comp/build/classes/org/openbravo/userinterface/skin/s250to300Comp/modulescript:/opt/OpenbravoTablero/modules/org.openbravo.v3.datasets/build/classes:/opt/OpenbravoTablero/mod
Launcher Type: SUN_STANDARD

Environment Variables:
JAVA_HOME=/usr/lib/jvm/java-8-openjdk-amd64
PATH=/usr/local/sbin:/usr/local/bin:/usr/sbin:/usr/bin:/sbin:/bin:/usr/games:/usr/local/games:/snap/bin
SHELL=/bin/bash

Signal Handlers:
SIGSEGV: [libjvm.so+0xa69040], sa_mask[0]=11111111011111111101111111111110, sa_flags=SA_RESTART|SA_SIGINFO
SIGBUS: [libjvm.so+0xa69040], sa_mask[0]=11111111011111111101111111111110, sa_flags=SA_RESTART|SA_SIGINFO
SIGFPE: [libjvm.so+0x8b2170], sa_mask[0]=11111111011111111101111111111110, sa_flags=SA_RESTART|SA_SIGINFO
SIGPIPE: [libjvm.so+0x8b2170], sa_mask[0]=11111111011111111101111111111110, sa_flags=SA_RESTART|SA_SIGINFO
SIGXFSZ: [libjvm.so+0x8b2170], sa_mask[0]=11111111011111111101111111111110, sa_flags=SA_RESTART|SA_SIGINFO
SIGILL: [libjvm.so+0x8b2170], sa_mask[0]=11111111011111111101111111111110, sa_flags=SA_RESTART|SA_SIGINFO
SIGUSR1: SIG_DFL, sa_mask[0]=00000000000000000000000000000000, sa_flags=none
SIGUSR2: [libjvm.so+0x8b2020], sa_mask[0]=00100000000000000000000000000000, sa_flags=SA_RESTART|SA_SIGINFO
SIGHUP: [libjvm.so+0x8b24f0], sa_mask[0]=11111111011111111101111111111110, sa_flags=SA_RESTART|SA_SIGINFO
SIGINT: [libjvm.so+0x8b24f0], sa_mask[0]=11111111011111111101111111111110, sa_flags=SA_RESTART|SA_SIGINFO
SIGTERM: [libjvm.so+0x8b24f0], sa_mask[0]=11111111011111111101111111111110, sa_flags=SA_RESTART|SA_SIGINFO
SIGQUIT: [libjvm.so+0x8b24f0], sa_mask[0]=11111111011111111101111111111110, sa_flags=SA_RESTART|SA_SIGINFO


---------------  S Y S T E M  ---------------

OS:DISTRIB_ID=Ubuntu
DISTRIB_RELEASE=16.04
DISTRIB_CODENAME=xenial
DISTRIB_DESCRIPTION="Ubuntu 16.04.3 LTS"

uname:Linux 4.4.0-112-generic #135-Ubuntu SMP Fri Jan 19 11:48:36 UTC 2018 x86_64
libc:glibc 2.23 NPTL 2.23 
rlimit: STACK 8192k, CORE 0k, NPROC 11959, NOFILE 1048576, AS infinity
load average:0.24 0.05 0.02

/proc/meminfo:
MemTotal:        3080336 kB
MemFree:           77788 kB
MemAvailable:      34624 kB
Buffers:            5992 kB
Cached:            78980 kB
SwapCached:            0 kB
Active:          2869916 kB
Inactive:          54544 kB
Active(anon):    2842548 kB
Inactive(anon):    33180 kB
Active(file):      27368 kB
Inactive(file):    21364 kB
Unevictable:        3652 kB
Mlocked:            3652 kB
SwapTotal:             0 kB
SwapFree:              0 kB
Dirty:               136 kB
Writeback:             0 kB
AnonPages:       2843192 kB
Mapped:            31212 kB
Shmem:             33768 kB
Slab:              40064 kB
SReclaimable:      23880 kB
SUnreclaim:        16184 kB
KernelStack:        4560 kB
PageTables:         9164 kB
NFS_Unstable:          0 kB
Bounce:                0 kB
WritebackTmp:          0 kB
CommitLimit:     1540168 kB
Committed_AS:    3416696 kB
VmallocTotal:   34359738367 kB
VmallocUsed:           0 kB
VmallocChunk:          0 kB
HardwareCorrupted:     0 kB
AnonHugePages:   2240512 kB
CmaTotal:              0 kB
CmaFree:               0 kB
HugePages_Total:       0
HugePages_Free:        0
HugePages_Rsvd:        0
HugePages_Surp:        0
Hugepagesize:       2048 kB
DirectMap4k:       42988 kB
DirectMap2M:     2054144 kB
DirectMap1G:     1048576 kB


CPU:total 2 (initial active 2) (1 cores per cpu, 1 threads per core) family 6 model 79 stepping 1, cmov, cx8, fxsr, mmx, sse, sse2, sse3, ssse3, sse4.1, sse4.2, popcnt, avx, avx2, aes, clmul, erms, rtm, 3dnowpref, lzcnt, tsc, bmi1, bmi2, adx

/proc/cpuinfo:
processor	: 0
vendor_id	: GenuineIntel
cpu family	: 6
model		: 79
model name	: Intel(R) Xeon(R) CPU E5-2697A v4 @ 2.60GHz
stepping	: 1
microcode	: 0x1
cpu MHz		: 2599.996
cache size	: 40960 KB
physical id	: 0
siblings	: 1
core id		: 0
cpu cores	: 1
apicid		: 0
initial apicid	: 0
fpu		: yes
fpu_exception	: yes
cpuid level	: 13
wp		: yes
flags		: fpu vme de pse tsc msr pae mce cx8 apic sep mtrr pge mca cmov pat pse36 clflush mmx fxsr sse sse2 ss syscall nx pdpe1gb rdtscp lm constant_tsc arch_perfmon rep_good nopl eagerfpu pni pclmulqdq vmx ssse3 fma cx16 pcid sse4_1 sse4_2 x2apic movbe popcnt tsc_deadline_timer aes xsave avx f16c rdrand hypervisor lahf_lm abm 3dnowprefetch invpcid_single kaiser tpr_shadow vnmi flexpriority ept vpid fsgsbase tsc_adjust bmi1 hle avx2 smep bmi2 erms invpcid rtm rdseed adx smap xsaveopt
bugs		:
bogomips	: 5199.99
clflush size	: 64
cache_alignment	: 64
address sizes	: 40 bits physical, 48 bits virtual
power management:

processor	: 1
vendor_id	: GenuineIntel
cpu family	: 6
model		: 79
model name	: Intel(R) Xeon(R) CPU E5-2697A v4 @ 2.60GHz
stepping	: 1
microcode	: 0x1
cpu MHz		: 2599.996
cache size	: 40960 KB
physical id	: 1
siblings	: 1
core id		: 0
cpu cores	: 1
apicid		: 1
initial apicid	: 1
fpu		: yes
fpu_exception	: yes
cpuid level	: 13
wp		: yes
flags		: fpu vme de pse tsc msr pae mce cx8 apic sep mtrr pge mca cmov pat pse36 clflush mmx fxsr sse sse2 ss syscall nx pdpe1gb rdtscp lm constant_tsc arch_perfmon rep_good nopl eagerfpu pni pclmulqdq vmx ssse3 fma cx16 pcid sse4_1 sse4_2 x2apic movbe popcnt tsc_deadline_timer aes xsave avx f16c rdrand hypervisor lahf_lm abm 3dnowprefetch invpcid_single kaiser tpr_shadow vnmi flexpriority ept vpid fsgsbase tsc_adjust bmi1 hle avx2 smep bmi2 erms invpcid rtm rdseed adx smap xsaveopt
bugs		:
bogomips	: 5199.99
clflush size	: 64
cache_alignment	: 64
address sizes	: 40 bits physical, 48 bits virtual
power management:



Memory: 4k page, physical 3080336k(77788k free), swap 0k(0k free)

vm_info: OpenJDK 64-Bit Server VM (25.151-b12) for linux-amd64 JRE (1.8.0_151-8u151-b12-0ubuntu0.16.04.2-b12), built on Oct 27 2017 21:59:02 by "buildd" with gcc 5.4.0 20160609

time: Sun Feb 18 09:36:26 2018
elapsed time: 3 seconds (0d 0h 0m 3s)

